%YAML 1.1
%TAG !u! tag:unity3d.com,2011:
--- !u!1045 &1
EditorBuildSettings:
  m_ObjectHideFlags: 0
  serializedVersion: 2
  m_Scenes:
  - enabled: 1
    path: Assets/Scenes/MenuScene.unity
    guid: acb4384b5357b034f9f1e84c53e7727a
  - enabled: 1
    path: Assets/Scenes/HomeScene.unity
    guid: 691f5a76782c57147baa27ecc3f31b04
  - enabled: 1
    path: Assets/Scenes/ClassicGameScene.unity
    guid: af6e097e8eb5da046af2b6b5f77774ff
  - enabled: 0
    path: Assets/Scenes/PageScene.unity
    guid: fefa51684dd1138429125488c2eacd90
  - enabled: 1
    path: Assets/Scenes/SelectlevelScene.unity
    guid: 12250cb83de8be54f8fbaf28747be289
  - enabled: 1
    path: Assets/Scenes/ExtendGameScene.unity
    guid: 77d15f5be21c99743a58375f95061807
  m_configObjects: {}
