%YAML 1.1
%TAG !u! tag:unity3d.com,2011:
--- !u!47 &1
QualitySettings:
  m_ObjectHideFlags: 0
  serializedVersion: 5
  m_CurrentQuality: 0
  m_QualitySettings:
  - serializedVersion: 2
    name: Medium
    pixelLightCount: 1
    shadows: 1
    shadowResolution: 0
    shadowProjection: 1
    shadowCascades: 1
    shadowDistance: 20
    shadowNearPlaneOffset: 3
    shadowCascade2Split: 0.33333334
    shadowCascade4Split: {x: 0.06666667, y: 0.2, z: 0.46666667}
    shadowmaskMode: 0
    blendWeights: 2
    textureQuality: 0
    anisotropicTextures: 0
    antiAliasing: 0
    softParticles: 0
    softVegetation: 0
    realtimeReflectionProbes: 0
    billboardsFaceCameraPosition: 0
    vSyncCount: 1
    lodBias: 0.7
    maximumLODLevel: 0
    streamingMipmapsActive: 0
    streamingMipmapsAddAllCameras: 1
    streamingMipmapsMemoryBudget: 512
    streamingMipmapsRenderersPerFrame: 512
    streamingMipmapsMaxLevelReduction: 2
    streamingMipmapsMaxFileIORequests: 1024
    particleRaycastBudget: 64
    asyncUploadTimeSlice: 2
    asyncUploadBufferSize: 16
    asyncUploadPersistentBuffer: 1
    resolutionScalingFixedDPIFactor: 1
    excludedTargetPlatforms: []
  - serializedVersion: 2
    name: High
    pixelLightCount: 4
    shadows: 0
    shadowResolution: 1
    shadowProjection: 1
    shadowCascades: 2
    shadowDistance: 40
    shadowNearPlaneOffset: 3
    shadowCascade2Split: 0.33333334
    shadowCascade4Split: {x: 0.06666667, y: 0.2, z: 0.46666667}
    shadowmaskMode: 1
    blendWeights: 2
    textureQuality: 0
    anisotropicTextures: 0
    antiAliasing: 2
    softParticles: 0
    softVegetation: 1
    realtimeReflectionProbes: 0
    billboardsFaceCameraPosition: 0
    vSyncCount: 1
    lodBias: 1
    maximumLODLevel: 0
    streamingMipmapsActive: 0
    streamingMipmapsAddAllCameras: 1
    streamingMipmapsMemoryBudget: 512
    streamingMipmapsRenderersPerFrame: 512
    streamingMipmapsMaxLevelReduction: 2
    streamingMipmapsMaxFileIORequests: 1024
    particleRaycastBudget: 256
    asyncUploadTimeSlice: 2
    asyncUploadBufferSize: 16
    asyncUploadPersistentBuffer: 1
    resolutionScalingFixedDPIFactor: 1
    excludedTargetPlatforms: []
  - serializedVersion: 2
    name: Ultra
    pixelLightCount: 10
    shadows: 0
    shadowResolution: 0
    shadowProjection: 1
    shadowCascades: 4
    shadowDistance: 150
    shadowNearPlaneOffset: 3
    shadowCascade2Split: 0.33333334
    shadowCascade4Split: {x: 0.06666667, y: 0.2, z: 0.46666667}
    shadowmaskMode: 1
    blendWeights: 4
    textureQuality: 0
    anisotropicTextures: 0
    antiAliasing: 8
    softParticles: 0
    softVegetation: 1
    realtimeReflectionProbes: 0
    billboardsFaceCameraPosition: 0
    vSyncCount: 1
    lodBias: 2
    maximumLODLevel: 0
    streamingMipmapsActive: 0
    streamingMipmapsAddAllCameras: 1
    streamingMipmapsMemoryBudget: 512
    streamingMipmapsRenderersPerFrame: 512
    streamingMipmapsMaxLevelReduction: 2
    streamingMipmapsMaxFileIORequests: 1024
    particleRaycastBudget: 4096
    asyncUploadTimeSlice: 2
    asyncUploadBufferSize: 16
    asyncUploadPersistentBuffer: 1
    resolutionScalingFixedDPIFactor: 1
    excludedTargetPlatforms: []
  m_PerPlatformDefaultQuality:
    Android: 0
    Nintendo 3DS: 2
    Nintendo Switch: 2
    PS4: 2
    PSM: 2
    PSP2: 0
    Standalone: 2
    Tizen: 0
    WebGL: 1
    WiiU: 2
    Windows Store Apps: 2
    XboxOne: 2
    iPhone: 0
    tvOS: 0
